{
  "page": 1,
  "pages": 7,
  "perpage": 16,
  "total": "97",
  "photo": [
    {
      "id": "20855218242",
      "owner": "10523850@N05",
      "secret": "f678e3ffac",
      "server": "724",
      "farm": 1,
      "title": "palmirabassoriluva",
      "ispublic": 1,
      "isfriend": 0,
      "isfamily": 0,
      "license": "1",
      "description": "",
      "dateupload": "1440487554",
      "datetaken": "2015-08-25 00:23:03",
      "datetakengranularity": 0,
      "datetakenunknown": "1",
      "ownername": "elisabetta2005",
      "tags": "syria palmira siria",
      "machine_tags": "",
      "latitude": "34.554073",
      "longitude": "38.266925",
      "accuracy": "11",
      "context": 0,
      "place_id": "SoXZfXxQW7772ag5",
      "woeid": "1947214",
      "geo_is_family": 0,
      "geo_is_friend": 0,
      "geo_is_contact": 0,
      "geo_is_public": 1,
      "url_q": "https://farm1.staticflickr.com/724/20855218242_f678e3ffac_q.jpg",
      "height_q": "150",
      "width_q": "150",
      "url_o": "https://farm1.staticflickr.com/724/20855218242_63019d173c_o.jpg",
      "height_o": "1958",
      "width_o": "3024"
    },
    {
      "id": "20242254064",
      "owner": "10523850@N05",
      "secret": "24b64be1ec",
      "server": "679",
      "farm": 1,
      "title": "palmirabasorilievo",
      "ispublic": 1,
      "isfriend": 0,
      "isfamily": 0,
      "license": "1",
      "description": "",
      "dateupload": "1440487554",
      "datetaken": "2015-08-25 00:24:06",
      "datetakengranularity": 0,
      "datetakenunknown": "1",
      "ownername": "elisabetta2005",
      "tags": "syria palmira siria",
      "machine_tags": "",
      "latitude": "34.554073",
      "longitude": "38.266925",
      "accuracy": "11",
      "context": 0,
      "place_id": "SoXZfXxQW7772ag5",
      "woeid": "1947214",
      "geo_is_family": 0,
      "geo_is_friend": 0,
      "geo_is_contact": 0,
      "geo_is_public": 1,
      "url_q": "https://farm1.staticflickr.com/679/20242254064_24b64be1ec_q.jpg",
      "height_q": "150",
      "width_q": "150",
      "url_o": "https://farm1.staticflickr.com/679/20242254064_5e3d4da934_o.jpg",
      "height_o": "1958",
      "width_o": "3015"
    },
    {
      "id": "20676809888",
      "owner": "10523850@N05",
      "secret": "fcefa745c6",
      "server": "5642",
      "farm": 6,
      "title": "palmiracavea",
      "ispublic": 1,
      "isfriend": 0,
      "isfamily": 0,
      "license": "1",
      "description": "",
      "dateupload": "1440487556",
      "datetaken": "2015-08-25 00:20:39",
      "datetakengranularity": 0,
      "datetakenunknown": "1",
      "ownername": "elisabetta2005",
      "tags": "syria palmira siria",
      "machine_tags": "",
      "latitude": "34.554073",
      "longitude": "38.266925",
      "accuracy": "11",
      "context": 0,
      "place_id": "SoXZfXxQW7772ag5",
      "woeid": "1947214",
      "geo_is_family": 0,
      "geo_is_friend": 0,
      "geo_is_contact": 0,
      "geo_is_public": 1,
      "url_q": "https://farm6.staticflickr.com/5642/20676809888_fcefa745c6_q.jpg",
      "height_q": "150",
      "width_q": "150",
      "url_o": "https://farm6.staticflickr.com/5642/20676809888_0c2394dab7_o.jpg",
      "height_o": "1992",
      "width_o": "3113"
    },
    {
      "id": "20855270202",
      "owner": "10523850@N05",
      "secret": "6f30b70b7e",
      "server": "777",
      "farm": 1,
      "title": "palmira teatro2",
      "ispublic": 1,
      "isfriend": 0,
      "isfamily": 0,
      "license": "1",
      "description": "",
      "dateupload": "1440487552",
      "datetaken": "2015-08-25 00:25:58",
      "datetakengranularity": 0,
      "datetakenunknown": "1",
      "ownername": "elisabetta2005",
      "tags": "syria palmira siria",
      "machine_tags": "",
      "latitude": "34.554073",
      "longitude": "38.266925",
      "accuracy": "11",
      "context": 0,
      "place_id": "SoXZfXxQW7772ag5",
      "woeid": "1947214",
      "geo_is_family": 0,
      "geo_is_friend": 0,
      "geo_is_contact": 0,
      "geo_is_public": 1,
      "url_q": "https://farm1.staticflickr.com/777/20855270202_6f30b70b7e_q.jpg",
      "height_q": "150",
      "width_q": "150",
      "url_o": "https://farm1.staticflickr.com/777/20855270202_6181cd402d_o.jpg",
      "height_o": "1827",
      "width_o": "2830"
    },
    {
      "id": "20676832428",
      "owner": "10523850@N05",
      "secret": "bd488cafe1",
      "server": "5768",
      "farm": 6,
      "title": "palmirabustodama",
      "ispublic": 1,
      "isfriend": 0,
      "isfamily": 0,
      "license": "1",
      "description": "",
      "dateupload": "1440487555",
      "datetaken": "2015-08-25 00:21:55",
      "datetakengranularity": 0,
      "datetakenunknown": "1",
      "ownername": "elisabetta2005",
      "tags": "syria palmira siria",
      "machine_tags": "",
      "latitude": "34.554073",
      "longitude": "38.266925",
      "accuracy": "11",
      "context": 0,
      "place_id": "SoXZfXxQW7772ag5",
      "woeid": "1947214",
      "geo_is_family": 0,
      "geo_is_friend": 0,
      "geo_is_contact": 0,
      "geo_is_public": 1,
      "url_q": "https://farm6.staticflickr.com/5768/20676832428_bd488cafe1_q.jpg",
      "height_q": "150",
      "width_q": "150",
      "url_o": "https://farm6.staticflickr.com/5768/20676832428_aa44f358a6_o.jpg",
      "height_o": "1813",
      "width_o": "1394"
    },
    {
      "id": "20243806613",
      "owner": "10523850@N05",
      "secret": "a59ebba564",
      "server": "5684",
      "farm": 6,
      "title": "palmiracastello1",
      "ispublic": 1,
      "isfriend": 0,
      "isfamily": 0,
      "license": "1",
      "description": "",
      "dateupload": "1440487556",
      "datetaken": "2015-08-25 00:21:31",
      "datetakengranularity": 0,
      "datetakenunknown": "1",
      "ownername": "elisabetta2005",
      "tags": "syria palmira siria",
      "machine_tags": "",
      "latitude": "34.554073",
      "longitude": "38.266925",
      "accuracy": "11",
      "context": 0,
      "place_id": "SoXZfXxQW7772ag5",
      "woeid": "1947214",
      "geo_is_family": 0,
      "geo_is_friend": 0,
      "geo_is_contact": 0,
      "geo_is_public": 1,
      "url_q": "https://farm6.staticflickr.com/5684/20243806613_a59ebba564_q.jpg",
      "height_q": "150",
      "width_q": "150",
      "url_o": "https://farm6.staticflickr.com/5684/20243806613_9c5141a59a_o.jpg",
      "height_o": "1958",
      "width_o": "3056"
    },
    {
      "id": "20855255612",
      "owner": "10523850@N05",
      "secret": "d67d5c12d8",
      "server": "694",
      "farm": 1,
      "title": "palmiraarcco",
      "ispublic": 1,
      "isfriend": 0,
      "isfamily": 0,
      "license": "1",
      "description": "",
      "dateupload": "1440487553",
      "datetaken": "2015-08-25 00:25:09",
      "datetakengranularity": 0,
      "datetakenunknown": "1",
      "ownername": "elisabetta2005",
      "tags": "syria palmira siria",
      "machine_tags": "",
      "latitude": "34.554073",
      "longitude": "38.266925",
      "accuracy": "11",
      "context": 0,
      "place_id": "SoXZfXxQW7772ag5",
      "woeid": "1947214",
      "geo_is_family": 0,
      "geo_is_friend": 0,
      "geo_is_contact": 0,
      "geo_is_public": 1,
      "url_q": "https://farm1.staticflickr.com/694/20855255612_d67d5c12d8_q.jpg",
      "height_q": "150",
      "width_q": "150",
      "url_o": "https://farm1.staticflickr.com/694/20855255612_30f20ce3cb_o.jpg",
      "height_o": "1958",
      "width_o": "2983"
    },
    {
      "id": "20243674133",
      "owner": "10523850@N05",
      "secret": "88521bc79c",
      "server": "594",
      "farm": 1,
      "title": "palmirastatue",
      "ispublic": 1,
      "isfriend": 0,
      "isfamily": 0,
      "license": "1",
      "description": "",
      "dateupload": "1440487560",
      "datetaken": "2015-08-25 00:13:58",
      "datetakengranularity": 0,
      "datetakenunknown": "1",
      "ownername": "elisabetta2005",
      "tags": "syria palmira siria",
      "machine_tags": "",
      "latitude": "34.554073",
      "longitude": "38.266925",
      "accuracy": "11",
      "context": 0,
      "place_id": "SoXZfXxQW7772ag5",
      "woeid": "1947214",
      "geo_is_family": 0,
      "geo_is_friend": 0,
      "geo_is_contact": 0,
      "geo_is_public": 1,
      "url_q": "https://farm1.staticflickr.com/594/20243674133_88521bc79c_q.jpg",
      "height_q": "150",
      "width_q": "150",
      "url_o": "https://farm1.staticflickr.com/594/20243674133_c85f87cb64_o.jpg",
      "height_o": "1931",
      "width_o": "2989"
    },
    {
      "id": "20855011192",
      "owner": "10523850@N05",
      "secret": "52e78dfd73",
      "server": "5736",
      "farm": 6,
      "title": "palmiratomba",
      "ispublic": 1,
      "isfriend": 0,
      "isfamily": 0,
      "license": "1",
      "description": "",
      "dateupload": "1440487561",
      "datetaken": "2015-08-25 00:11:22",
      "datetakengranularity": 0,
      "datetakenunknown": "1",
      "ownername": "elisabetta2005",
      "tags": "syria palmira siria",
      "machine_tags": "",
      "latitude": "34.554073",
      "longitude": "38.266925",
      "accuracy": "11",
      "context": 0,
      "place_id": "SoXZfXxQW7772ag5",
      "woeid": "1947214",
      "geo_is_family": 0,
      "geo_is_friend": 0,
      "geo_is_contact": 0,
      "geo_is_public": 1,
      "url_q": "https://farm6.staticflickr.com/5736/20855011192_52e78dfd73_q.jpg",
      "height_q": "150",
      "width_q": "150",
      "url_o": "https://farm6.staticflickr.com/5736/20855011192_b360af0f69_o.jpg",
      "height_o": "1957",
      "width_o": "2933"
    },
    {
      "id": "20677997499",
      "owner": "10523850@N05",
      "secret": "911785cd96",
      "server": "5655",
      "farm": 6,
      "title": "palmiracolonnata2",
      "ispublic": 1,
      "isfriend": 0,
      "isfamily": 0,
      "license": "1",
      "description": "",
      "dateupload": "1440487558",
      "datetaken": "2015-08-25 00:17:51",
      "datetakengranularity": 0,
      "datetakenunknown": "1",
      "ownername": "elisabetta2005",
      "tags": "syria palmira siria",
      "machine_tags": "",
      "latitude": "34.554073",
      "longitude": "38.266925",
      "accuracy": "11",
      "context": 0,
      "place_id": "SoXZfXxQW7772ag5",
      "woeid": "1947214",
      "geo_is_family": 0,
      "geo_is_friend": 0,
      "geo_is_contact": 0,
      "geo_is_public": 1,
      "url_q": "https://farm6.staticflickr.com/5655/20677997499_911785cd96_q.jpg",
      "height_q": "150",
      "width_q": "150",
      "url_o": "https://farm6.staticflickr.com/5655/20677997499_f6630f2e9f_o.jpg",
      "height_o": "2934",
      "width_o": "1958"
    },
    {
      "id": "20677944539",
      "owner": "10523850@N05",
      "secret": "e9fbe930a2",
      "server": "572",
      "farm": 1,
      "title": "palmirapanorama",
      "ispublic": 1,
      "isfriend": 0,
      "isfamily": 0,
      "license": "1",
      "description": "",
      "dateupload": "1440487559",
      "datetaken": "2015-08-25 00:14:56",
      "datetakengranularity": 0,
      "datetakenunknown": "1",
      "ownername": "elisabetta2005",
      "tags": "syria palmira siria",
      "machine_tags": "",
      "latitude": "34.554073",
      "longitude": "38.266925",
      "accuracy": "11",
      "context": 0,
      "place_id": "SoXZfXxQW7772ag5",
      "woeid": "1947214",
      "geo_is_family": 0,
      "geo_is_friend": 0,
      "geo_is_contact": 0,
      "geo_is_public": 1,
      "url_q": "https://farm1.staticflickr.com/572/20677944539_e9fbe930a2_q.jpg",
      "height_q": "150",
      "width_q": "150",
      "url_o": "https://farm1.staticflickr.com/572/20677944539_e8c0c5f67d_o.jpg",
      "height_o": "1958",
      "width_o": "2934"
    },
    {
      "id": "20855110172",
      "owner": "10523850@N05",
      "secret": "bfd98d60f1",
      "server": "649",
      "farm": 1,
      "title": "palmiracolonnata3",
      "ispublic": 1,
      "isfriend": 0,
      "isfamily": 0,
      "license": "1",
      "description": "",
      "dateupload": "1440487558",
      "datetaken": "2015-08-25 00:16:53",
      "datetakengranularity": 0,
      "datetakenunknown": "1",
      "ownername": "elisabetta2005",
      "tags": "",
      "machine_tags": "",
      "latitude": "34.554073",
      "longitude": "38.266925",
      "accuracy": "11",
      "context": 0,
      "place_id": "SoXZfXxQW7772ag5",
      "woeid": "1947214",
      "geo_is_family": 0,
      "geo_is_friend": 0,
      "geo_is_contact": 0,
      "geo_is_public": 1,
      "url_q": "https://farm1.staticflickr.com/649/20855110172_bfd98d60f1_q.jpg",
      "height_q": "150",
      "width_q": "150",
      "url_o": "https://farm1.staticflickr.com/649/20855110172_da7499c0fd_o.jpg",
      "height_o": "1958",
      "width_o": "2975"
    },
    {
      "id": "20854990742",
      "owner": "10523850@N05",
      "secret": "ec8f25ec72",
      "server": "570",
      "farm": 1,
      "title": "palmiratorre",
      "ispublic": 1,
      "isfriend": 0,
      "isfamily": 0,
      "license": "1",
      "description": "",
      "dateupload": "1440487562",
      "datetaken": "2015-08-25 00:10:15",
      "datetakengranularity": 0,
      "datetakenunknown": "1",
      "ownername": "elisabetta2005",
      "tags": "syria palmira siria",
      "machine_tags": "",
      "latitude": "34.554073",
      "longitude": "38.266925",
      "accuracy": "11",
      "context": 0,
      "place_id": "SoXZfXxQW7772ag5",
      "woeid": "1947214",
      "geo_is_family": 0,
      "geo_is_friend": 0,
      "geo_is_contact": 0,
      "geo_is_public": 1,
      "url_q": "https://farm1.staticflickr.com/570/20854990742_ec8f25ec72_q.jpg",
      "height_q": "150",
      "width_q": "150",
      "url_o": "https://farm1.staticflickr.com/570/20854990742_4566b78d3f_o.jpg",
      "height_o": "1958",
      "width_o": "3007"
    },
    {
      "id": "20676718280",
      "owner": "10523850@N05",
      "secret": "852623d8c7",
      "server": "584",
      "farm": 1,
      "title": "palmiracentro",
      "ispublic": 1,
      "isfriend": 0,
      "isfamily": 0,
      "license": "1",
      "description": "",
      "dateupload": "1440487557",
      "datetaken": "2015-08-25 00:19:43",
      "datetakengranularity": 0,
      "datetakenunknown": "1",
      "ownername": "elisabetta2005",
      "tags": "syria palmira siria",
      "machine_tags": "",
      "latitude": "34.554073",
      "longitude": "38.266925",
      "accuracy": "11",
      "context": 0,
      "place_id": "SoXZfXxQW7772ag5",
      "woeid": "1947214",
      "geo_is_family": 0,
      "geo_is_friend": 0,
      "geo_is_contact": 0,
      "geo_is_public": 1,
      "url_q": "https://farm1.staticflickr.com/584/20676718280_852623d8c7_q.jpg",
      "height_q": "150",
      "width_q": "150",
      "url_o": "https://farm1.staticflickr.com/584/20676718280_483dfa3564_o.jpg",
      "height_o": "1958",
      "width_o": "3007"
    },
    {
      "id": "20676586760",
      "owner": "10523850@N05",
      "secret": "6d2b63643a",
      "server": "764",
      "farm": 1,
      "title": "palmiratempio",
      "ispublic": 1,
      "isfriend": 0,
      "isfamily": 0,
      "license": "1",
      "description": "",
      "dateupload": "1440487561",
      "datetaken": "2015-08-25 00:12:26",
      "datetakengranularity": 0,
      "datetakenunknown": "1",
      "ownername": "elisabetta2005",
      "tags": "syria palmira siria",
      "machine_tags": "",
      "latitude": "34.554073",
      "longitude": "38.266925",
      "accuracy": "11",
      "context": 0,
      "place_id": "SoXZfXxQW7772ag5",
      "woeid": "1947214",
      "geo_is_family": 0,
      "geo_is_friend": 0,
      "geo_is_contact": 0,
      "geo_is_public": 1,
      "url_q": "https://farm1.staticflickr.com/764/20676586760_6d2b63643a_q.jpg",
      "height_q": "150",
      "width_q": "150",
      "url_o": "https://farm1.staticflickr.com/764/20676586760_de5d0d7ba4_o.jpg",
      "height_o": "1958",
      "width_o": "2983"
    },
    {
      "id": "20243706673",
      "owner": "10523850@N05",
      "secret": "faac88794f",
      "server": "613",
      "farm": 1,
      "title": "palmiraedificio",
      "ispublic": 1,
      "isfriend": 0,
      "isfamily": 0,
      "license": "1",
      "description": "",
      "dateupload": "1440487559",
      "datetaken": "2015-08-25 00:15:47",
      "datetakengranularity": 0,
      "datetakenunknown": "1",
      "ownername": "elisabetta2005",
      "tags": "syria palmira siria",
      "machine_tags": "",
      "latitude": "34.554073",
      "longitude": "38.266925",
      "accuracy": "11",
      "context": 0,
      "place_id": "SoXZfXxQW7772ag5",
      "woeid": "1947214",
      "geo_is_family": 0,
      "geo_is_friend": 0,
      "geo_is_contact": 0,
      "geo_is_public": 1,
      "url_q": "https://farm1.staticflickr.com/613/20243706673_faac88794f_q.jpg",
      "height_q": "150",
      "width_q": "150",
      "url_o": "https://farm1.staticflickr.com/613/20243706673_df444508e4_o.jpg",
      "height_o": "2988",
      "width_o": "1958"
    }
  ]
}
